{
  "$schema": "https://schema.management.azure.com/schemas/2015-01-01/deploymentParameters.json#",
  "contentVersion": "1.0.0.0",
  "parameters": {
    "namePrefix": {
      "value": "dmpoc1"
    },
    "existingDomainName": {
      "value": "nomspocstor.net"
    },
    "adminUsername": {
      "value": "localadmin"
    },
    "adminPassword": {
      "value": "MiltonKeynes00"
    },
    "existingVirtualNetworkName": {
      "value": "NOMSPOC-VNet1"
    },
    "existingVirtualNetworkRGName": {
      "value": "HPEPOC"
    },    
    "existingSubnetName": {
      "value": "subnet1"
    },
    "privateSubnetName": {
      "value": "subnet2"
    },
    "storageAccountType": {
      "value": "Standard_RAGRS"
    },
    "vmSize": {
      "value": "Standard_DS3_v2"
    },
    "vmCount": {
      "value": 2
    },
    "vmDiskSize": {
      "value": 128
    },
    "vmDiskCount": {
      "value": 4
    },
    "sofsName": {
      "value": "POCCLUSTER1"
    },
    "shareName": {
      "value": "share1"
    },
    "_artifactsLocation": {
      "value": "https://bitbucket.org/mcs_ltd/s2dpublic/raw/master/StorageSpacesDirect_StorageAcc-NoPS"	
    }
  }
}
