{
  "$schema": "https://schema.management.azure.com/schemas/2015-01-01/deploymentParameters.json#",
  "contentVersion": "1.0.0.0",
  "parameters": {
    "namePrefix": {
      "value": "dmpoc13"
    },
    "existingDomainName": {
      "value": "nomspocstor.net"
    },
    "adminUsername": {
      "value": "hpeadmin"
    },
    "adminPassword": {
      "value": "MiltonKeynes00"
    },
    "existingVirtualNetworkName": {
      "value": "NOMSPOC-VNet1-JN"
    },
    "existingVirtualNetworkRGName": {
      "value": "HPE"
    },    
    "existingSubnetName": {
      "value": "subnet_JN1"
    },
    "privateSubnetName": {
      "value": "subnet_JN2"
    },
    "storageAccountType": {
      "value": "Standard_LRS"
    },
    "vmSize": {
      "value": "Standard_DS2_v2"
    },
    "vmCount": {
      "value": 2
    },
    "vmDiskSize": {
      "value": 256
    },
    "vmDiskCount": {
      "value": 2
    },
    "sofsName": {
      "value": "DMPOC13SOFS1"
    },
    "shareName": {
      "value": "dmpoc13share"
    },
    "_artifactsLocation": {
      "value": "https://bitbucket.org/mcs_ltd/s2dpublic/raw/master/301-storage-spaces-direct-NoPS"	
    }
  }
}
